{
  "AWSTemplateFormatVersion": "2010-09-09",
  "Conditions": {
    "BlankSecurityGroup": {
      "Fn::Equals": [
        {
          "Ref": "SecurityGroup"
        },
        ""
      ]
    },
    "EnabledMain": {
      "Fn::Not": [
        {
          "Fn::Equals": [
            {
              "Fn::Select": [
                0,
                {
                  "Ref": "MainFormation"
                }
              ]
            },
            "-1"
          ]
        }
      ]
    },
    "Internal": {
      "Fn::Equals": [
        {
          "Ref": "Internal"
        },
        "Yes"
      ]
    },
    "Private": {
      "Fn::Equals": [
        {
          "Ref": "Private"
        },
        "Yes"
      ]
    },
    "RegionHasECR": {
      "Fn::Or": [
        {
          "Fn::Equals": [
            {
              "Ref": "AWS::Region"
            },
            "us-east-1"
          ]
        },
        {
          "Fn::Equals": [
            {
              "Ref": "AWS::Region"
            },
            "us-west-1"
          ]
        },
        {
          "Fn::Equals": [
            {
              "Ref": "AWS::Region"
            },
            "us-west-2"
          ]
        },
        {
          "Fn::Equals": [
            {
              "Ref": "AWS::Region"
            },
            "eu-central-1"
          ]
        },
        {
          "Fn::Equals": [
            {
              "Ref": "AWS::Region"
            },
            "eu-west-1"
          ]
        },
        {
          "Fn::Equals": [
            {
              "Ref": "AWS::Region"
            },
            "ap-northeast-1"
          ]
        },
        {
          "Fn::Equals": [
            {
              "Ref": "AWS::Region"
            },
            "ap-southeast-1"
          ]
        },
        {
          "Fn::Equals": [
            {
              "Ref": "AWS::Region"
            },
            "ap-southeast-2"
          ]
        }
      ]
    }
  },
  "Mappings": {
    "PortProtocol": {
      "http": {
        "InstanceProtocol": "HTTP",
        "ListenerProtocol": "HTTP",
        "SecureInstanceProtocol": "HTTPS"
      },
      "https": {
        "InstanceProtocol": "HTTP",
        "ListenerProtocol": "HTTPS",
        "SecureInstanceProtocol": "HTTPS"
      },
      "tcp": {
        "InstanceProtocol": "TCP",
        "ListenerProtocol": "TCP",
        "SecureInstanceProtocol": "SSL"
      },
      "tls": {
        "InstanceProtocol": "TCP",
        "ListenerProtocol": "SSL",
        "SecureInstanceProtocol": "SSL"
      }
    }
  },
  "Outputs": {
    "LogGroup": {
      "Value": {
        "Ref": "LogGroup"
      }
    },
    "RegistryId": {
      "Condition": "RegionHasECR",
      "Value": {
        "Ref": "AWS::AccountId"
      }
    },
    "RegistryRepository": {
      "Condition": "RegionHasECR",
      "Value": {
        "Fn::GetAtt": [
          "RegistryRepository",
          "RepositoryName"
        ]
      }
    },
    "Settings": {
      "Value": {
        "Ref": "Settings"
      }
    }
  },
  "Parameters": {
    "Cluster": {
      "Default": "",
      "Description": "",
      "Type": "String"
    },
    "DeploymentMaximum": {
      "Default": "200",
      "Description": "Maximum percentage of processes to keep running while deploying",
      "Type": "Number"
    },
    "DeploymentMinimum": {
      "Default": "100",
      "Description": "Minimum percentage of processes to keep running while deploying",
      "Type": "Number"
    },
    "Environment": {
      "Default": "",
      "Description": "",
      "Type": "String"
    },
    "Internal": {
      "AllowedValues": [
        "Yes",
        "No"
      ],
      "Default": "No",
      "Description": "Only allow access to this app from inside the VPC",
      "Type": "String"
    },
    "Key": {
      "Default": "",
      "Description": "",
      "Type": "String"
    },
    "MainFormation": {
      "Default": "1,0,256",
      "Description": "Number of processes to run, CPU units to reserve, and MB of RAM to reserve",
      "Type": "CommaDelimitedList"
    },
    "Private": {
      "AllowedValues": [
        "Yes",
        "No"
      ],
      "Default": "No",
      "Description": "Use SubnetsPrivate to specify VPC-side load balancer endpoints",
      "Type": "String"
    },
    "Release": {
      "Default": "",
      "Description": "",
      "Type": "String"
    },
    "Repository": {
      "Default": "",
      "Description": "Source code repository",
      "Type": "String"
    },
    "SecurityGroup": {
      "Default": "",
      "Description": "The Load balancer security group for this app",
      "Type": "String"
    },
    "Subnets": {
      "Default": "",
      "Description": "VPC subnets for this app",
      "Type": "List\u003cAWS::EC2::Subnet::Id\u003e"
    },
    "SubnetsPrivate": {
      "Default": "",
      "Description": "VPC private subnets for this app",
      "Type": "List\u003cAWS::EC2::Subnet::Id\u003e"
    },
    "VPC": {
      "Default": "",
      "Description": "VPC for this app",
      "Type": "AWS::EC2::VPC::Id"
    },
    "VPCCIDR": {
      "Default": "",
      "Description": "VPC CIDR for this app",
      "Type": "String"
    },
    "Version": {
      "Description": "(REQUIRED) Lambda CustomTopic Handler Release Version",
      "MinLength": "1",
      "Type": "String"
    }
  },
  "Resources": {
    "CustomTopic": {
      "Properties": {
        "Code": {
          "S3Bucket": {
            "Fn::Join": [
              "-",
              [
                "convox",
                {
                  "Ref": "AWS::Region"
                }
              ]
            ]
          },
          "S3Key": {
            "Fn::Join": [
              "",
              [
                "release/",
                {
                  "Ref": "Version"
                },
                "/lambda/formation.zip"
              ]
            ]
          }
        },
        "Handler": "index.external",
        "MemorySize": "128",
        "Role": {
          "Fn::GetAtt": [
            "CustomTopicRole",
            "Arn"
          ]
        },
        "Runtime": "nodejs",
        "Timeout": "300"
      },
      "Type": "AWS::Lambda::Function"
    },
    "CustomTopicRole": {
      "Properties": {
        "AssumeRolePolicyDocument": {
          "Statement": [
            {
              "Action": [
                "sts:AssumeRole"
              ],
              "Effect": "Allow",
              "Principal": {
                "Service": [
                  "lambda.amazonaws.com"
                ]
              }
            }
          ],
          "Version": "2012-10-17"
        },
        "Path": "/",
        "Policies": [
          {
            "PolicyDocument": {
              "Statement": [
                {
                  "Action": "*",
                  "Effect": "Allow",
                  "Resource": "*"
                }
              ],
              "Version": "2012-10-17"
            },
            "PolicyName": "Administrator"
          }
        ]
      },
      "Type": "AWS::IAM::Role"
    },
    "LogGroup": {
      "Type": "AWS::Logs::LogGroup"
    },
    "MainECSTaskDefinition": {
      "DependsOn": [
        "CustomTopic",
        "ServiceRole"
      ],
      "Properties": {
        "Environment": {
          "Ref": "Environment"
        },
        "Key": {
          "Ref": "Key"
        },
        "Name": {
          "Fn::Join": [
            "-",
            [
              {
                "Ref": "AWS::StackName"
              },
              "main"
            ]
          ]
        },
        "Release": {
          "Ref": "Release"
        },
        "ServiceToken": {
          "Fn::GetAtt": [
            "CustomTopic",
            "Arn"
          ]
        },
        "Tasks": [
          {
            "Command": [
              "cmd1",
              "cmd2"
            ],
            "Cpu": {
              "Fn::Select": [
                1,
                {
                  "Ref": "MainFormation"
                }
              ]
            },
            "Environment": {
              "APP": "httpd",
              "AWS_REGION": "test",
              "LOG_GROUP": {
                "Ref": "LogGroup"
              },
              "PROCESS": "main",
              "RACK": "convox-test"
            },
            "ExtraHosts": [
              {
                "Ref": "AWS::NoValue"
              }
            ],
            "Image": "",
            "Memory": {
              "Fn::Select": [
                2,
                {
                  "Ref": "MainFormation"
                }
              ]
            },
            "Name": "main",
            "PortMappings": [
              {
                "Ref": "AWS::NoValue"
              }
            ],
            "Privileged": "false",
            "Services": [
              {
                "Ref": "AWS::NoValue"
              }
            ],
            "Volumes": [
              {
                "Ref": "AWS::NoValue"
              }
            ]
          }
        ]
      },
      "Type": "Custom::ECSTaskDefinition",
      "Version": "1.0"
    },
    "RegistryRepository": {
      "Condition": "RegionHasECR",
      "Properties": {
        "RepositoryName": {
          "Ref": "AWS::StackName"
        },
        "ServiceToken": {
          "Fn::GetAtt": [
            "CustomTopic",
            "Arn"
          ]
        }
      },
      "Type": "Custom::ECRRepository",
      "Version": "1.0"
    },
    "ServiceMain": {
      "Condition": "EnabledMain",
      "DependsOn": [
        "CustomTopic",
        "ServiceRole"
      ],
      "Properties": {
        "Cluster": {
          "Ref": "Cluster"
        },
        "DeploymentConfiguration": {
          "MaximumPercent": "200",
          "MinimumHealthyPercent": "100"
        },
        "DesiredCount": {
          "Fn::Select": [
            0,
            {
              "Ref": "MainFormation"
            }
          ]
        },
        "TaskDefinition": {
          "Ref": "MainECSTaskDefinition"
        }
      },
      "Type": "AWS::ECS::Service"
    },
    "ServiceRole": {
      "Properties": {
        "AssumeRolePolicyDocument": {
          "Statement": [
            {
              "Action": [
                "sts:AssumeRole"
              ],
              "Effect": "Allow",
              "Principal": {
                "Service": [
                  "ecs.amazonaws.com"
                ]
              }
            }
          ],
          "Version": "2012-10-17"
        },
        "Path": "/",
        "Policies": [
          {
            "PolicyDocument": {
              "Statement": [
                {
                  "Action": [
                    "elasticloadbalancing:Describe*",
                    "elasticloadbalancing:DeregisterInstancesFromLoadBalancer",
                    "elasticloadbalancing:RegisterInstancesWithLoadBalancer",
                    "ec2:Describe*",
                    "ec2:AuthorizeSecurityGroupIngress"
                  ],
                  "Effect": "Allow",
                  "Resource": [
                    "*"
                  ]
                }
              ]
            },
            "PolicyName": "ServiceRole"
          }
        ]
      },
      "Type": "AWS::IAM::Role"
    },
    "Settings": {
      "DeletionPolicy": "Retain",
      "Properties": {
        "AccessControl": "Private",
        "Tags": [
          {
            "Key": "system",
            "Value": "convox"
          },
          {
            "Key": "app",
            "Value": {
              "Ref": "AWS::StackName"
            }
          }
        ]
      },
      "Type": "AWS::S3::Bucket"
    }
  }
}
