{
  "AWSTemplateFormatVersion": "2010-09-09",
  "Conditions": {
    "BlankBalancerWebPort80Certificate": {
      "Fn::Equals": [
        {
          "Ref": "WebPort80Certificate"
        },
        ""
      ]
    },
    "BlankBalancerWorkerPort80Certificate": {
      "Fn::Equals": [
        {
          "Ref": "WorkerPort80Certificate"
        },
        ""
      ]
    },
    "BlankSecurityGroup": {
      "Fn::Equals": [
        {
          "Ref": "SecurityGroup"
        },
        ""
      ]
    },
    "EnabledWeb": {
      "Fn::Not": [
        {
          "Fn::Equals": [
            {
              "Fn::Select": [
                0,
                {
                  "Ref": "WebFormation"
                }
              ]
            },
            "-1"
          ]
        }
      ]
    },
    "EnabledWorker": {
      "Fn::Not": [
        {
          "Fn::Equals": [
            {
              "Fn::Select": [
                0,
                {
                  "Ref": "WorkerFormation"
                }
              ]
            },
            "-1"
          ]
        }
      ]
    },
    "Internal": {
      "Fn::Equals": [
        {
          "Ref": "Internal"
        },
        "Yes"
      ]
    },
    "Private": {
      "Fn::Equals": [
        {
          "Ref": "Private"
        },
        "Yes"
      ]
    },
    "RegionHasECR": {
      "Fn::Or": [
        {
          "Fn::Equals": [
            {
              "Ref": "AWS::Region"
            },
            "us-east-1"
          ]
        },
        {
          "Fn::Equals": [
            {
              "Ref": "AWS::Region"
            },
            "us-west-1"
          ]
        },
        {
          "Fn::Equals": [
            {
              "Ref": "AWS::Region"
            },
            "us-west-2"
          ]
        },
        {
          "Fn::Equals": [
            {
              "Ref": "AWS::Region"
            },
            "eu-central-1"
          ]
        },
        {
          "Fn::Equals": [
            {
              "Ref": "AWS::Region"
            },
            "eu-west-1"
          ]
        },
        {
          "Fn::Equals": [
            {
              "Ref": "AWS::Region"
            },
            "ap-northeast-1"
          ]
        },
        {
          "Fn::Equals": [
            {
              "Ref": "AWS::Region"
            },
            "ap-southeast-1"
          ]
        },
        {
          "Fn::Equals": [
            {
              "Ref": "AWS::Region"
            },
            "ap-southeast-2"
          ]
        }
      ]
    }
  },
  "Mappings": {
    "PortProtocol": {
      "http": {
        "InstanceProtocol": "HTTP",
        "ListenerProtocol": "HTTP",
        "SecureInstanceProtocol": "HTTPS"
      },
      "https": {
        "InstanceProtocol": "HTTP",
        "ListenerProtocol": "HTTPS",
        "SecureInstanceProtocol": "HTTPS"
      },
      "tcp": {
        "InstanceProtocol": "TCP",
        "ListenerProtocol": "TCP",
        "SecureInstanceProtocol": "SSL"
      },
      "tls": {
        "InstanceProtocol": "TCP",
        "ListenerProtocol": "SSL",
        "SecureInstanceProtocol": "SSL"
      }
    }
  },
  "Outputs": {
    "BalancerWebHost": {
      "Condition": "EnabledWeb",
      "Value": {
        "Fn::GetAtt": [
          "BalancerWeb",
          "DNSName"
        ]
      }
    },
    "BalancerWorkerHost": {
      "Condition": "EnabledWorker",
      "Value": {
        "Fn::GetAtt": [
          "BalancerWorker",
          "DNSName"
        ]
      }
    },
    "LogGroup": {
      "Value": {
        "Ref": "LogGroup"
      }
    },
    "RegistryId": {
      "Condition": "RegionHasECR",
      "Value": {
        "Ref": "AWS::AccountId"
      }
    },
    "RegistryRepository": {
      "Condition": "RegionHasECR",
      "Value": {
        "Fn::GetAtt": [
          "RegistryRepository",
          "RepositoryName"
        ]
      }
    },
    "Settings": {
      "Value": {
        "Ref": "Settings"
      }
    },
    "WebPort80Balancer": {
      "Condition": "EnabledWeb",
      "Value": "80"
    },
    "WebPort80BalancerName": {
      "Condition": "EnabledWeb",
      "Value": "httpd-web-XHW5F4P"
    },
    "WorkerPort80Balancer": {
      "Condition": "EnabledWorker",
      "Value": "80"
    },
    "WorkerPort80BalancerName": {
      "Condition": "EnabledWorker",
      "Value": "httpd-worker-3XM5YXK"
    }
  },
  "Parameters": {
    "Cluster": {
      "Default": "",
      "Description": "",
      "Type": "String"
    },
    "DeploymentMaximum": {
      "Default": "200",
      "Description": "Maximum percentage of processes to keep running while deploying",
      "Type": "Number"
    },
    "DeploymentMinimum": {
      "Default": "100",
      "Description": "Minimum percentage of processes to keep running while deploying",
      "Type": "Number"
    },
    "Environment": {
      "Default": "",
      "Description": "",
      "Type": "String"
    },
    "Internal": {
      "AllowedValues": [
        "Yes",
        "No"
      ],
      "Default": "No",
      "Description": "Only allow access to this app from inside the VPC",
      "Type": "String"
    },
    "Key": {
      "Default": "",
      "Description": "",
      "Type": "String"
    },
    "Private": {
      "AllowedValues": [
        "Yes",
        "No"
      ],
      "Default": "No",
      "Description": "Use SubnetsPrivate to specify VPC-side load balancer endpoints",
      "Type": "String"
    },
    "Release": {
      "Default": "",
      "Description": "",
      "Type": "String"
    },
    "Repository": {
      "Default": "",
      "Description": "Source code repository",
      "Type": "String"
    },
    "SecurityGroup": {
      "Default": "",
      "Description": "The Load balancer security group for this app",
      "Type": "String"
    },
    "Subnets": {
      "Default": "",
      "Description": "VPC subnets for this app",
      "Type": "List\u003cAWS::EC2::Subnet::Id\u003e"
    },
    "SubnetsPrivate": {
      "Default": "",
      "Description": "VPC private subnets for this app",
      "Type": "List\u003cAWS::EC2::Subnet::Id\u003e"
    },
    "VPC": {
      "Default": "",
      "Description": "VPC for this app",
      "Type": "AWS::EC2::VPC::Id"
    },
    "VPCCIDR": {
      "Default": "",
      "Description": "VPC CIDR for this app",
      "Type": "String"
    },
    "Version": {
      "Description": "(REQUIRED) Lambda CustomTopic Handler Release Version",
      "MinLength": "1",
      "Type": "String"
    },
    "WebFormation": {
      "Default": "1,0,256",
      "Description": "Number of processes to run, CPU units to reserve, and MB of RAM to reserve",
      "Type": "CommaDelimitedList"
    },
    "WebPort80Certificate": {
      "Default": "",
      "Description": "",
      "Type": "String"
    },
    "WebPort80Host": {
      "Default": "5000",
      "Description": "",
      "Type": "String"
    },
    "WorkerFormation": {
      "Default": "1,0,256",
      "Description": "Number of processes to run, CPU units to reserve, and MB of RAM to reserve",
      "Type": "CommaDelimitedList"
    },
    "WorkerPort80Certificate": {
      "Default": "",
      "Description": "",
      "Type": "String"
    },
    "WorkerPort80Host": {
      "Default": "5000",
      "Description": "",
      "Type": "String"
    }
  },
  "Resources": {
    "BalancerWeb": {
      "Condition": "EnabledWeb",
      "DependsOn": [
        "BalancerWebSecurityGroup"
      ],
      "Properties": {
        "ConnectionDrainingPolicy": {
          "Enabled": true,
          "Timeout": 60
        },
        "ConnectionSettings": {
          "IdleTimeout": "3600"
        },
        "CrossZone": true,
        "HealthCheck": {
          "HealthyThreshold": "2",
          "Interval": "5",
          "Target": {
            "Fn::Join": [
              "",
              [
                "TCP:",
                {
                  "Ref": "WebPort80Host"
                },
                ""
              ]
            ]
          },
          "Timeout": "3",
          "UnhealthyThreshold": "2"
        },
        "LBCookieStickinessPolicy": [
          {
            "PolicyName": "affinity"
          }
        ],
        "Listeners": [
          {
            "InstancePort": {
              "Ref": "WebPort80Host"
            },
            "InstanceProtocol": "TCP",
            "LoadBalancerPort": "80",
            "Protocol": {
              "Fn::If": [
                "BlankBalancerWebPort80Certificate",
                "TCP",
                "SSL"
              ]
            },
            "SSLCertificateId": {
              "Fn::If": [
                "BlankBalancerWebPort80Certificate",
                {
                  "Ref": "AWS::NoValue"
                },
                {
                  "Ref": "WebPort80Certificate"
                }
              ]
            }
          },
          {
            "Ref": "AWS::NoValue"
          }
        ],
        "LoadBalancerName": "httpd-web-XHW5F4P",
        "Policies": [
          {
            "Ref": "AWS::NoValue"
          }
        ],
        "Scheme": {
          "Fn::If": [
            "Internal",
            "internal",
            {
              "Ref": "AWS::NoValue"
            }
          ]
        },
        "SecurityGroups": [
          {
            "Fn::If": [
              "BlankSecurityGroup",
              {
                "Ref": "BalancerWebSecurityGroup"
              },
              {
                "Ref": "SecurityGroup"
              }
            ]
          }
        ],
        "Subnets": {
          "Fn::If": [
            "Internal",
            {
              "Ref": "SubnetsPrivate"
            },
            {
              "Ref": "Subnets"
            }
          ]
        }
      },
      "Type": "AWS::ElasticLoadBalancing::LoadBalancer"
    },
    "BalancerWebSecurityGroup": {
      "Condition": "EnabledWeb",
      "Properties": {
        "GroupDescription": {
          "Fn::Join": [
            " ",
            [
              {
                "Ref": "AWS::StackName"
              },
              "-balancer"
            ]
          ]
        },
        "SecurityGroupIngress": [
          {
            "CidrIp": "0.0.0.0/0",
            "FromPort": "80",
            "IpProtocol": "tcp",
            "ToPort": "80"
          },
          {
            "Ref": "AWS::NoValue"
          }
        ],
        "VpcId": {
          "Ref": "VPC"
        }
      },
      "Type": "AWS::EC2::SecurityGroup"
    },
    "BalancerWorker": {
      "Condition": "EnabledWorker",
      "DependsOn": [
        "BalancerWorkerSecurityGroup"
      ],
      "Properties": {
        "ConnectionDrainingPolicy": {
          "Enabled": true,
          "Timeout": 60
        },
        "ConnectionSettings": {
          "IdleTimeout": "3600"
        },
        "CrossZone": true,
        "HealthCheck": {
          "HealthyThreshold": "2",
          "Interval": "5",
          "Target": {
            "Fn::Join": [
              "",
              [
                "TCP:",
                {
                  "Ref": "WorkerPort80Host"
                },
                ""
              ]
            ]
          },
          "Timeout": "3",
          "UnhealthyThreshold": "2"
        },
        "LBCookieStickinessPolicy": [
          {
            "PolicyName": "affinity"
          }
        ],
        "Listeners": [
          {
            "InstancePort": {
              "Ref": "WorkerPort80Host"
            },
            "InstanceProtocol": "TCP",
            "LoadBalancerPort": "80",
            "Protocol": {
              "Fn::If": [
                "BlankBalancerWorkerPort80Certificate",
                "TCP",
                "SSL"
              ]
            },
            "SSLCertificateId": {
              "Fn::If": [
                "BlankBalancerWorkerPort80Certificate",
                {
                  "Ref": "AWS::NoValue"
                },
                {
                  "Ref": "WorkerPort80Certificate"
                }
              ]
            }
          },
          {
            "Ref": "AWS::NoValue"
          }
        ],
        "LoadBalancerName": "httpd-worker-3XM5YXK",
        "Policies": [
          {
            "Ref": "AWS::NoValue"
          }
        ],
        "Scheme": {
          "Fn::If": [
            "Internal",
            "internal",
            {
              "Ref": "AWS::NoValue"
            }
          ]
        },
        "SecurityGroups": [
          {
            "Fn::If": [
              "BlankSecurityGroup",
              {
                "Ref": "BalancerWorkerSecurityGroup"
              },
              {
                "Ref": "SecurityGroup"
              }
            ]
          }
        ],
        "Subnets": {
          "Fn::If": [
            "Internal",
            {
              "Ref": "SubnetsPrivate"
            },
            {
              "Ref": "Subnets"
            }
          ]
        }
      },
      "Type": "AWS::ElasticLoadBalancing::LoadBalancer"
    },
    "BalancerWorkerSecurityGroup": {
      "Condition": "EnabledWorker",
      "Properties": {
        "GroupDescription": {
          "Fn::Join": [
            " ",
            [
              {
                "Ref": "AWS::StackName"
              },
              "-balancer"
            ]
          ]
        },
        "SecurityGroupIngress": [
          {
            "CidrIp": "0.0.0.0/0",
            "FromPort": "80",
            "IpProtocol": "tcp",
            "ToPort": "80"
          },
          {
            "Ref": "AWS::NoValue"
          }
        ],
        "VpcId": {
          "Ref": "VPC"
        }
      },
      "Type": "AWS::EC2::SecurityGroup"
    },
    "CustomTopic": {
      "Properties": {
        "Code": {
          "S3Bucket": {
            "Fn::Join": [
              "-",
              [
                "convox",
                {
                  "Ref": "AWS::Region"
                }
              ]
            ]
          },
          "S3Key": {
            "Fn::Join": [
              "",
              [
                "release/",
                {
                  "Ref": "Version"
                },
                "/lambda/formation.zip"
              ]
            ]
          }
        },
        "Handler": "index.external",
        "MemorySize": "128",
        "Role": {
          "Fn::GetAtt": [
            "CustomTopicRole",
            "Arn"
          ]
        },
        "Runtime": "nodejs",
        "Timeout": "300"
      },
      "Type": "AWS::Lambda::Function"
    },
    "CustomTopicRole": {
      "Properties": {
        "AssumeRolePolicyDocument": {
          "Statement": [
            {
              "Action": [
                "sts:AssumeRole"
              ],
              "Effect": "Allow",
              "Principal": {
                "Service": [
                  "lambda.amazonaws.com"
                ]
              }
            }
          ],
          "Version": "2012-10-17"
        },
        "Path": "/",
        "Policies": [
          {
            "PolicyDocument": {
              "Statement": [
                {
                  "Action": "*",
                  "Effect": "Allow",
                  "Resource": "*"
                }
              ],
              "Version": "2012-10-17"
            },
            "PolicyName": "Administrator"
          }
        ]
      },
      "Type": "AWS::IAM::Role"
    },
    "LogGroup": {
      "Type": "AWS::Logs::LogGroup"
    },
    "RegistryRepository": {
      "Condition": "RegionHasECR",
      "Properties": {
        "RepositoryName": {
          "Ref": "AWS::StackName"
        },
        "ServiceToken": {
          "Fn::GetAtt": [
            "CustomTopic",
            "Arn"
          ]
        }
      },
      "Type": "Custom::ECRRepository",
      "Version": "1.0"
    },
    "ServiceRole": {
      "Properties": {
        "AssumeRolePolicyDocument": {
          "Statement": [
            {
              "Action": [
                "sts:AssumeRole"
              ],
              "Effect": "Allow",
              "Principal": {
                "Service": [
                  "ecs.amazonaws.com"
                ]
              }
            }
          ],
          "Version": "2012-10-17"
        },
        "Path": "/",
        "Policies": [
          {
            "PolicyDocument": {
              "Statement": [
                {
                  "Action": [
                    "elasticloadbalancing:Describe*",
                    "elasticloadbalancing:DeregisterInstancesFromLoadBalancer",
                    "elasticloadbalancing:RegisterInstancesWithLoadBalancer",
                    "ec2:Describe*",
                    "ec2:AuthorizeSecurityGroupIngress"
                  ],
                  "Effect": "Allow",
                  "Resource": [
                    "*"
                  ]
                }
              ]
            },
            "PolicyName": "ServiceRole"
          }
        ]
      },
      "Type": "AWS::IAM::Role"
    },
    "ServiceWeb": {
      "Condition": "EnabledWeb",
      "DependsOn": [
        "BalancerWeb",
        "CustomTopic",
        "ServiceRole"
      ],
      "Properties": {
        "Cluster": {
          "Ref": "Cluster"
        },
        "DeploymentConfiguration": {
          "MaximumPercent": "200",
          "MinimumHealthyPercent": "100"
        },
        "DesiredCount": {
          "Fn::Select": [
            0,
            {
              "Ref": "WebFormation"
            }
          ]
        },
        "LoadBalancers": [
          {
            "ContainerName": "web",
            "ContainerPort": "3000",
            "LoadBalancerName": {
              "Ref": "BalancerWeb"
            }
          }
        ],
        "Role": {
          "Fn::GetAtt": [
            "ServiceRole",
            "Arn"
          ]
        },
        "TaskDefinition": {
          "Ref": "WebECSTaskDefinition"
        }
      },
      "Type": "AWS::ECS::Service"
    },
    "ServiceWorker": {
      "Condition": "EnabledWorker",
      "DependsOn": [
        "BalancerWorker",
        "CustomTopic",
        "ServiceRole"
      ],
      "Properties": {
        "Cluster": {
          "Ref": "Cluster"
        },
        "DeploymentConfiguration": {
          "MaximumPercent": "200",
          "MinimumHealthyPercent": "100"
        },
        "DesiredCount": {
          "Fn::Select": [
            0,
            {
              "Ref": "WorkerFormation"
            }
          ]
        },
        "LoadBalancers": [
          {
            "ContainerName": "worker",
            "ContainerPort": "3000",
            "LoadBalancerName": {
              "Ref": "BalancerWorker"
            }
          }
        ],
        "Role": {
          "Fn::GetAtt": [
            "ServiceRole",
            "Arn"
          ]
        },
        "TaskDefinition": {
          "Ref": "WorkerECSTaskDefinition"
        }
      },
      "Type": "AWS::ECS::Service"
    },
    "Settings": {
      "DeletionPolicy": "Retain",
      "Properties": {
        "AccessControl": "Private",
        "Tags": [
          {
            "Key": "system",
            "Value": "convox"
          },
          {
            "Key": "app",
            "Value": {
              "Ref": "AWS::StackName"
            }
          }
        ]
      },
      "Type": "AWS::S3::Bucket"
    },
    "WebECSTaskDefinition": {
      "DependsOn": [
        "CustomTopic",
        "ServiceRole"
      ],
      "Properties": {
        "Environment": {
          "Ref": "Environment"
        },
        "Key": {
          "Ref": "Key"
        },
        "Name": {
          "Fn::Join": [
            "-",
            [
              {
                "Ref": "AWS::StackName"
              },
              "web"
            ]
          ]
        },
        "Release": {
          "Ref": "Release"
        },
        "ServiceToken": {
          "Fn::GetAtt": [
            "CustomTopic",
            "Arn"
          ]
        },
        "Tasks": [
          {
            "Command": "bash -c 'bundle exec puma -C config/puma.rb'",
            "Cpu": {
              "Fn::Select": [
                1,
                {
                  "Ref": "WebFormation"
                }
              ]
            },
            "Environment": {
              "APP": "httpd",
              "AWS_REGION": "test",
              "LOG_GROUP": {
                "Ref": "LogGroup"
              },
              "PROCESS": "web",
              "RACK": "convox-test"
            },
            "ExtraHosts": [
              {
                "Ref": "AWS::NoValue"
              }
            ],
            "Image": "",
            "Memory": {
              "Fn::Select": [
                2,
                {
                  "Ref": "WebFormation"
                }
              ]
            },
            "Name": "web",
            "PortMappings": [
              {
                "Fn::Join": [
                  ":",
                  [
                    {
                      "Ref": "WebPort80Host"
                    },
                    "3000"
                  ]
                ]
              },
              {
                "Ref": "AWS::NoValue"
              }
            ],
            "Privileged": "false",
            "Services": [
              {
                "Ref": "AWS::NoValue"
              }
            ],
            "Volumes": [
              {
                "Ref": "AWS::NoValue"
              }
            ]
          }
        ]
      },
      "Type": "Custom::ECSTaskDefinition",
      "Version": "1.0"
    },
    "WorkerECSTaskDefinition": {
      "DependsOn": [
        "CustomTopic",
        "ServiceRole"
      ],
      "Properties": {
        "Environment": {
          "Ref": "Environment"
        },
        "Key": {
          "Ref": "Key"
        },
        "Name": {
          "Fn::Join": [
            "-",
            [
              {
                "Ref": "AWS::StackName"
              },
              "worker"
            ]
          ]
        },
        "Release": {
          "Ref": "Release"
        },
        "ServiceToken": {
          "Fn::GetAtt": [
            "CustomTopic",
            "Arn"
          ]
        },
        "Tasks": [
          {
            "Command": "bash -c \"bundle exec worker\"",
            "Cpu": {
              "Fn::Select": [
                1,
                {
                  "Ref": "WorkerFormation"
                }
              ]
            },
            "Environment": {
              "APP": "httpd",
              "AWS_REGION": "test",
              "LOG_GROUP": {
                "Ref": "LogGroup"
              },
              "PROCESS": "worker",
              "RACK": "convox-test"
            },
            "ExtraHosts": [
              {
                "Ref": "AWS::NoValue"
              }
            ],
            "Image": "",
            "Memory": {
              "Fn::Select": [
                2,
                {
                  "Ref": "WorkerFormation"
                }
              ]
            },
            "Name": "worker",
            "PortMappings": [
              {
                "Fn::Join": [
                  ":",
                  [
                    {
                      "Ref": "WorkerPort80Host"
                    },
                    "3000"
                  ]
                ]
              },
              {
                "Ref": "AWS::NoValue"
              }
            ],
            "Privileged": "false",
            "Services": [
              {
                "Ref": "AWS::NoValue"
              }
            ],
            "Volumes": [
              {
                "Ref": "AWS::NoValue"
              }
            ]
          }
        ]
      },
      "Type": "Custom::ECSTaskDefinition",
      "Version": "1.0"
    }
  }
}
